{
	"editor.autoClosingBrackets": "never",
	"editor.autoClosingQuotes": "never",
	"editor.detectIndentation": false,
	"editor.formatOnPaste": false,
	"editor.formatOnSave": false,
	"editor.formatOnType": false,
	"editor.insertSpaces": true,
	"editor.matchBrackets": "always",
	"editor.mouseWheelZoom": true,
	"editor.multiCursorModifier": "ctrlCmd",
	"editor.selectionHighlight": true,
	"editor.suggestSelection": "first",
	"editor.tabSize": 4,
	"extensions.ignoreRecommendations": true,
	"files.maxMemoryForLargeFilesMB": 40960,
	"git.autofetch": true,
	"git.enableSmartCommit": true,
	"git.ignoreMissingGitWarning": true,
    "html.autoClosingTags": true,
    "local-history.path":  "/Users/u_gkncode/.VsHistory",
	"html.format.indentInnerHtml": true,
	"importCost.debug": true,
	"javascript.format.enable": false,
	"local-history.daysLimit": 0,
	"php.suggest.basic": false,
	"search.useIgnoreFiles": false,
	"sync.gist": "",
	"window.zoomLevel": 1,
	"workbench.colorTheme": "Palenight Theme",
	"workbench.iconTheme": "material-icon-theme",
    "workbench.startupEditor": "newUntitledFile",
    "workbench.colorCustomizations": {
        "activityBarBadge.background": "#80CBC4",
        "list.activeSelectionForeground": "#80CBC4",
        "list.inactiveSelectionForeground": "#80CBC4",
        "list.highlightForeground": "#80CBC4",
        "scrollbarSlider.activeBackground": "#80CBC450",
        "editorSuggestWidget.highlightForeground": "#80CBC4",
        "textLink.foreground": "#80CBC4",
        "progressBar.background": "#80CBC4",
        "pickerGroup.foreground": "#80CBC4",
        "tab.activeBorder": "#80CBC4",
        "notificationLink.foreground": "#80CBC4",
        "editorWidget.resizeBorder": "#80CBC4",
        "editorWidget.border": "#80CBC4",
        "settings.modifiedItemIndicator": "#80CBC4",
        "settings.headerForeground": "#80CBC4",
        "panelTitle.activeBorder": "#80CBC4",
        "breadcrumb.activeSelectionForeground": "#80CBC4",
        "menu.selectionForeground": "#80CBC4",
        "menubar.selectionForeground": "#80CBC4"
    },
    
    "files.associations": {
        "Dockerfile*": "dockerfile"
    },
    "editor.fontSize": 12,
    "explorer.confirmDragAndDrop": false,
    "editor.fontFamily": "Fira Code,SauceCodePro NF",
    "editor.fontLigatures": true,
    "git.confirmSync": false,
    "workbench.sideBar.location": "right",
    "diffEditor.ignoreTrimWhitespace": true,
    "python.jediEnabled": false,
    "go.goroot": "/snap/go/current",
    "go.gopath": "/Users/u_gkncode/go",
    "go.languageServerExperimentalFeatures": {
        "format": true,
        "diagnostics": true,
        "documentLink": true
    },
    "go.lintFlags": [ "--new"],

    "terminal.integrated.rendererType": "dom",
    "go.formatTool": "goimports",
    "javascript.updateImportsOnFileMove.enabled": "always",
    "go.useLanguageServer": true,
    "todo-tree.tree.showScanModeButton": false,
    "go.autocompleteUnimportedPackages": true
    
}
